%YAML 1.1
%TAG !u! tag:unity3d.com,2011:
--- !u!114 &11400000
MonoBehaviour:
  m_ObjectHideFlags: 0
  m_CorrespondingSourceObject: {fileID: 0}
  m_PrefabInstance: {fileID: 0}
  m_PrefabAsset: {fileID: 0}
  m_GameObject: {fileID: 0}
  m_Enabled: 1
  m_EditorHideFlags: 0
  m_Script: {fileID: 11500000, guid: 4856151a004e8cf48991ffc7ce6987f4, type: 3}
  m_Name: EnemySample
  m_EditorClassIdentifier: 
  obstaclePrefab: {fileID: 8744648396496760627, guid: af09fda31439b1f44ba9eac0262df40c, type: 3}
  isCentric: 0
